Mini-Project 01 - Assessing the Impact of SFFA on Campus Diversity One-Year Later – STA 9750 Submission Material
…
IPEDS <- IPEDS |>
  mutate(total_enrollment = enrollment_aian + enrollment_asia + enrollment_bkaa + enrollment_hisp + enrollment_nhpi + enrollment_whit + enrollment_2mor + enrollment_unkn + enrollment_nral)

1 How many distinct institutions appear in this data set?

Answer: 11243

Code

IPEDS |>
  distinct(institution_name)

# A tibble: 11,243 × 1
   institution_name                   
   <chr>                              
 1 Alabama A & M University           
 2 University of Alabama at Birmingham
 3 Amridge University                 
 4 University of Alabama at Huntsville
 5 Alabama State University           
 6 The University of Alabama          
 7 Central Alabama Community College  
 8 Athens State University            
 9 Auburn University at Montgomery    
10 Auburn University                  
# ℹ 11,233 more rows
…
`summarise()` has regrouped the output.
ℹ Summaries were computed grouped by institution_name and year.
ℹ Output is grouped by institution_name.
ℹ Use `summarise(.groups = "drop_last")` to silence this message.
ℹ Use `summarise(.by = c(institution_name, year))` for per-operation grouping
  (`?dplyr::dplyr_by`) instead.

# A tibble: 3,942 × 4
# Groups:   institution_name [3,942]
   institution_name                    year_2010 year_2020 change_fraction_white
   <chr>                                   <dbl>     <dbl>                 <dbl>
 1 University of the Cumberlands           0.856    0.0874                -0.769
 2 Detroit Business Institute-Downriv…     0.891    0.148                 -0.743
 3 Paul Mitchell the School-Rhode Isl…     0.910    0.275                 -0.635
 4 Robert Paul Academy of Cosmetology…     0.872    0.259                 -0.614
 5 Vista College                           0.822    0.212                 -0.610
 6 Harrisburg University of Science a…     0.689    0.0940                -0.595
 7 New England Institute of Technology     0.674    0.0817                -0.592
 8 Palm Beach Academy of Health & Bea…     0.668    0.109                 -0.559
 9 Chisholm Trail Technology Center        0.728    0.169                 -0.559
10 Saint Joseph's College of Maine         0.711    0.188                 -0.522
# ℹ 3,932 more rows
…
California school: California State University-Los Angeles

Code

IPEDS |>
  filter(is_calpublic == TRUE) |>
  group_by(institution_name) |>
  summarize(
    total_enrollment = sum(total_enrollment, na.rm = TRUE)
  ) |>
  print(n=20)

# A tibble: 31 × 2
   institution_name                                          total_enrollment
   <chr>                                                                <dbl>
 1 Bethesda University of California                                     1194
 2 California State University Maritime Academy                         10280
 3 California State University-Bakersfield                             164976
 4 California State University-Channel Islands                         102354
 5 California State University-Chico                                   282286
 6 California State University-Dominguez Hills                         260116
 7 California State University-East Bay                                239031
 8 California State University-Fresno                                  408718
 9 California State University-Fullerton                               668476
10 California State University-Long Beach                              638732
11 California State University-Los Angeles                             429139
12 California State University-Monterey Bay                            116022
13 California State University-Northridge                              659542
14 California State University-Sacramento                              511465
15 California State University-San Bernardino                          324275
16 California State University-San Marcos                              240032
17 California State University-Stanislaus                              165027
18 Dominican University of California                                   33520
19 University of California College of the Law-San Francisco             2411
20 University of California Hastings College of Law                      3752
# ℹ 11 more rows
…
