Mini-Project 03 - Who Goes There? US Internal Migration and Implications for Congressional Reapportionment – STA 9750 Submission Material
…
pop_next |>
  mutate(flow = mji * populationoforigin) |>
  group_by(state_1y) |>
  summarise(
    inflow = sum(flow),
    base_pop = first(populationofdestination),
    growth = first(growth)
  ) |>
  mutate(P2025 = base_pop * (1 + growth) + inflow)

# A tibble: 54 × 5
   state_1y                inflow base_pop growth     P2025
   <chr>                    <dbl>    <dbl>  <dbl>     <dbl>
 1 Alabama               5055345.  5102703 0.0157 10238133.
 2 Alaska                 710839.  5102703 0.0157  5893627.
 3 Arizona               7430497.  5102703 0.0157 12613285.
 4 Arkansas              3019502.  5102703 0.0157  8202291.
 5 California           40182807.  5102703 0.0157 45365595.
 6 Colorado              5884289.  5102703 0.0157 11067078.
 7 Connecticut           3595456.  5102703 0.0157  8778245.
 8 Delaware              1013298.  5102703 0.0157  6196086.
 9 District of Columbia       NA   5102703 0.0157       NA 
10 Florida              23319864.  5102703 0.0157 28502652.
# ℹ 44 more rows
…
