Project - What is the impact of request submission method on service request resolution? And is there an overall best submission method? – STA 9750 Submission Material
…
dups |>
  count()

# A tibble: 296,456 × 5
# Groups:   lat_r, lon_r, problem_clean, Created Date [296,456]
   lat_r lon_r problem_clean        `Created Date`             n
   <dbl> <dbl> <chr>                <chr>                  <int>
 1  40.5 -74.2 Safety               12/03/2024 03:53:33 PM     2
 2  40.5 -74.2 Unsanitary Condition 01/09/2022 11:00:47 PM     2
 3  40.5 -74.2 Plumbing             01/16/2025 04:12:43 PM     3
 4  40.5 -74.3 Noise                03/31/2022 08:26:00 PM     2
 5  40.5 -74.2 Door/Window          01/20/2024 02:43:17 PM     2
 6  40.5 -74.2 Water System         01/27/2025 11:11:00 AM     2
 7  40.5 -74.2 Safety               02/24/2023 09:33:02 AM     2
 8  40.5 -74.2 Plumbing             01/11/2023 09:28:39 AM     2
 9  40.5 -74.2 Plumbing             10/18/2024 01:22:40 PM     2
10  40.5 -74.2 Paint/Plaster        12/29/2022 01:21:32 PM     3
# ℹ 296,446 more rows
…
